{
  "project_info": {
    "project_number": "664791829552",
    "project_id": "playsocialg"
  },
  "client": [
    {
      "client_info": {
        "mobilesdk_app_id": "1:664791829552:android:6184cf7c8f3e629a",
        "android_client_info": {
          "package_name": "com.example.junior.playsocial"
        }
      },
      "oauth_client": [
        {
          "client_id": "664791829552-l6a6n0g4r97gckg4s63n2dlv4svt9817.apps.googleusercontent.com",
          "client_type": 1,
          "android_info": {
            "package_name": "com.example.junior.playsocial",
            "certificate_hash": "5ab36e734451b67abf6108aab7843880c47785f0"
          }
        },
        {
          "client_id": "664791829552-ullsdmb8qoubqua3qdco83boc0me27b4.apps.googleusercontent.com",
          "client_type": 3
        }
      ],
      "api_key": [
        {
          "current_key": "AIzaSyBRWju_TnO9glcKz9KQ2Q7Mn2S9tfKPitQ"
        }
      ],
      "services": {
        "analytics_service": {
          "status": 1
        },
        "appinvite_service": {
          "status": 1,
          "other_platform_oauth_client": []
        },
        "ads_service": {
          "status": 1
        }
      }
    }
  ],
  "configuration_version": "1"
}